…
flights <- flights %>%
  mutate(
    arr_hour = arr_time %/% 100,      
    arr_min = arr_time %% 100,        
    arr_datetime = make_datetime(year, month, day, arr_hour, arr_min)
  )

select(flights, year, month, day, dep_time, dep_datetime, arr_time, arr_datetime)
```

    ## # A tibble: 336,776 × 7
    ##     year month   day dep_time dep_datetime        arr_time arr_datetime       
    ##    <int> <int> <int>    <int> <dttm>                 <int> <dttm>             
    ##  1  2013     1     1      517 2013-01-01 05:17:00      830 2013-01-01 08:30:00
    ##  2  2013     1     1      533 2013-01-01 05:33:00      850 2013-01-01 08:50:00
    ##  3  2013     1     1      542 2013-01-01 05:42:00      923 2013-01-01 09:23:00
    ##  4  2013     1     1      544 2013-01-01 05:44:00     1004 2013-01-01 10:04:00
    ##  5  2013     1     1      554 2013-01-01 05:54:00      812 2013-01-01 08:12:00
    ##  6  2013     1     1      554 2013-01-01 05:54:00      740 2013-01-01 07:40:00
    ##  7  2013     1     1      555 2013-01-01 05:55:00      913 2013-01-01 09:13:00
    ##  8  2013     1     1      557 2013-01-01 05:57:00      709 2013-01-01 07:09:00
    ##  9  2013     1     1      557 2013-01-01 05:57:00      838 2013-01-01 08:38:00
    ## 10  2013     1     1      558 2013-01-01 05:58:00      753 2013-01-01 07:53:00
    ## # ℹ 336,766 more rows
…
